…
Comparing predicted broad spectrum compounds.

``` r
library(ggvenn)
```

    ## Loading required package: grid

``` r
mole_predictions.over10
```

    ## # A tibble: 235 × 13
    ##    `Catalog Number` nk_total nk_gnegative nk_gpositive apscore_total
    ##    <chr>               <dbl>        <dbl>        <dbl>         <dbl>
    ##  1 HY-N0797               14            3           11        -3.88 
    ##  2 HY-N0835               13            3           10        -4.16 
    ##  3 HY-P0288               13            2           11        -3.77 
    ##  4 HY-P1564A              25            9           16        -2.95 
    ##  5 HY-D0186               14           11            3        -4.64 
    ##  6 HY-N2177               11            4            7        -4.27 
    ##  7 HY-W009444             14           12            2        -4.67 
    ##  8 HY-16938               16            5           11        -3.29 
    ##  9 HY-13534A              37           15           22        -0.637
    ## 10 HY-B1916               38           17           21        -0.342
    ## # ℹ 225 more rows
    ## # ℹ 8 more variables: apscore_gnegative <dbl>, apscore_gpositive <dbl>,
    ## #   antibiotic <chr>, ProductName <chr>, atc_description <chr>,
    ## #   `Biological Activity` <chr>, `Reported Activity` <chr>, Reference <chr>
…
